^C:\USERS\BYRON\DOCUMENTS\VISUAL STUDIO 2013\PROJECTS\SPIKE 13\SPIKE10\BLACKBOARD.CPP
/c /ZI /nologo /W3 /WX- /sdl /Od /Oy- /D WIN32 /D _DEBUG /D _CONSOLE /D _LIB /D _UNICODE /D UNICODE /Gm /EHsc /RTC1 /MDd /GS /fp:precise /Zc:wchar_t /Zc:forScope /Fo"DEBUG\\" /Fd"DEBUG\VC120.PDB" /Gd /TP /analyze- C:\USERS\BYRON\DOCUMENTS\VISUAL STUDIO 2013\PROJECTS\SPIKE 13\SPIKE10\BLACKBOARD.CPP
^C:\USERS\BYRON\DOCUMENTS\VISUAL STUDIO 2013\PROJECTS\SPIKE 13\SPIKE10\CARRYCOMPONENT.CPP
/c /ZI /nologo /W3 /WX- /sdl /Od /Oy- /D WIN32 /D _DEBUG /D _CONSOLE /D _LIB /D _UNICODE /D UNICODE /Gm /EHsc /RTC1 /MDd /GS /fp:precise /Zc:wchar_t /Zc:forScope /Fo"DEBUG\\" /Fd"DEBUG\VC120.PDB" /Gd /TP /analyze- C:\USERS\BYRON\DOCUMENTS\VISUAL STUDIO 2013\PROJECTS\SPIKE 13\SPIKE10\CARRYCOMPONENT.CPP
^C:\USERS\BYRON\DOCUMENTS\VISUAL STUDIO 2013\PROJECTS\SPIKE 13\SPIKE10\COMMAND.CPP
/c /ZI /nologo /W3 /WX- /sdl /Od /Oy- /D WIN32 /D _DEBUG /D _CONSOLE /D _LIB /D _UNICODE /D UNICODE /Gm /EHsc /RTC1 /MDd /GS /fp:precise /Zc:wchar_t /Zc:forScope /Fo"DEBUG\\" /Fd"DEBUG\VC120.PDB" /Gd /TP /analyze- C:\USERS\BYRON\DOCUMENTS\VISUAL STUDIO 2013\PROJECTS\SPIKE 13\SPIKE10\COMMAND.CPP
^C:\USERS\BYRON\DOCUMENTS\VISUAL STUDIO 2013\PROJECTS\SPIKE 13\SPIKE10\COMMANDPROCESSOR.CPP
/c /ZI /nologo /W3 /WX- /sdl /Od /Oy- /D WIN32 /D _DEBUG /D _CONSOLE /D _LIB /D _UNICODE /D UNICODE /Gm /EHsc /RTC1 /MDd /GS /fp:precise /Zc:wchar_t /Zc:forScope /Fo"DEBUG\\" /Fd"DEBUG\VC120.PDB" /Gd /TP /analyze- C:\USERS\BYRON\DOCUMENTS\VISUAL STUDIO 2013\PROJECTS\SPIKE 13\SPIKE10\COMMANDPROCESSOR.CPP
^C:\USERS\BYRON\DOCUMENTS\VISUAL STUDIO 2013\PROJECTS\SPIKE 13\SPIKE10\COMPONENT.CPP
/c /ZI /nologo /W3 /WX- /sdl /Od /Oy- /D WIN32 /D _DEBUG /D _CONSOLE /D _LIB /D _UNICODE /D UNICODE /Gm /EHsc /RTC1 /MDd /GS /fp:precise /Zc:wchar_t /Zc:forScope /Fo"DEBUG\\" /Fd"DEBUG\VC120.PDB" /Gd /TP /analyze- C:\USERS\BYRON\DOCUMENTS\VISUAL STUDIO 2013\PROJECTS\SPIKE 13\SPIKE10\COMPONENT.CPP
^C:\USERS\BYRON\DOCUMENTS\VISUAL STUDIO 2013\PROJECTS\SPIKE 13\SPIKE10\COMPONENTLOADER.CPP
/c /ZI /nologo /W3 /WX- /sdl /Od /Oy- /D WIN32 /D _DEBUG /D _CONSOLE /D _LIB /D _UNICODE /D UNICODE /Gm /EHsc /RTC1 /MDd /GS /fp:precise /Zc:wchar_t /Zc:forScope /Fo"DEBUG\\" /Fd"DEBUG\VC120.PDB" /Gd /TP /analyze- C:\USERS\BYRON\DOCUMENTS\VISUAL STUDIO 2013\PROJECTS\SPIKE 13\SPIKE10\COMPONENTLOADER.CPP
^C:\USERS\BYRON\DOCUMENTS\VISUAL STUDIO 2013\PROJECTS\SPIKE 13\SPIKE10\CONTEXTCONTROLLER.CPP
/c /ZI /nologo /W3 /WX- /sdl /Od /Oy- /D WIN32 /D _DEBUG /D _CONSOLE /D _LIB /D _UNICODE /D UNICODE /Gm /EHsc /RTC1 /MDd /GS /fp:precise /Zc:wchar_t /Zc:forScope /Fo"DEBUG\\" /Fd"DEBUG\VC120.PDB" /Gd /TP /analyze- C:\USERS\BYRON\DOCUMENTS\VISUAL STUDIO 2013\PROJECTS\SPIKE 13\SPIKE10\CONTEXTCONTROLLER.CPP
^C:\USERS\BYRON\DOCUMENTS\VISUAL STUDIO 2013\PROJECTS\SPIKE 13\SPIKE10\EDGE.CPP
/c /ZI /nologo /W3 /WX- /sdl /Od /Oy- /D WIN32 /D _DEBUG /D _CONSOLE /D _LIB /D _UNICODE /D UNICODE /Gm /EHsc /RTC1 /MDd /GS /fp:precise /Zc:wchar_t /Zc:forScope /Fo"DEBUG\\" /Fd"DEBUG\VC120.PDB" /Gd /TP /analyze- C:\USERS\BYRON\DOCUMENTS\VISUAL STUDIO 2013\PROJECTS\SPIKE 13\SPIKE10\EDGE.CPP
^C:\USERS\BYRON\DOCUMENTS\VISUAL STUDIO 2013\PROJECTS\SPIKE 13\SPIKE10\ENTITY.CPP
/c /ZI /nologo /W3 /WX- /sdl /Od /Oy- /D WIN32 /D _DEBUG /D _CONSOLE /D _LIB /D _UNICODE /D UNICODE /Gm /EHsc /RTC1 /MDd /GS /fp:precise /Zc:wchar_t /Zc:forScope /Fo"DEBUG\\" /Fd"DEBUG\VC120.PDB" /Gd /TP /analyze- C:\USERS\BYRON\DOCUMENTS\VISUAL STUDIO 2013\PROJECTS\SPIKE 13\SPIKE10\ENTITY.CPP
^C:\USERS\BYRON\DOCUMENTS\VISUAL STUDIO 2013\PROJECTS\SPIKE 13\SPIKE10\FAILEDCOMMAND.CPP
/c /ZI /nologo /W3 /WX- /sdl /Od /Oy- /D WIN32 /D _DEBUG /D _CONSOLE /D _LIB /D _UNICODE /D UNICODE /Gm /EHsc /RTC1 /MDd /GS /fp:precise /Zc:wchar_t /Zc:forScope /Fo"DEBUG\\" /Fd"DEBUG\VC120.PDB" /Gd /TP /analyze- C:\USERS\BYRON\DOCUMENTS\VISUAL STUDIO 2013\PROJECTS\SPIKE 13\SPIKE10\FAILEDCOMMAND.CPP
^C:\USERS\BYRON\DOCUMENTS\VISUAL STUDIO 2013\PROJECTS\SPIKE 13\SPIKE10\GAMEDATA.CPP
/c /ZI /nologo /W3 /WX- /sdl /Od /Oy- /D WIN32 /D _DEBUG /D _CONSOLE /D _LIB /D _UNICODE /D UNICODE /Gm /EHsc /RTC1 /MDd /GS /fp:precise /Zc:wchar_t /Zc:forScope /Fo"DEBUG\\" /Fd"DEBUG\VC120.PDB" /Gd /TP /analyze- C:\USERS\BYRON\DOCUMENTS\VISUAL STUDIO 2013\PROJECTS\SPIKE 13\SPIKE10\GAMEDATA.CPP
^C:\USERS\BYRON\DOCUMENTS\VISUAL STUDIO 2013\PROJECTS\SPIKE 13\SPIKE10\GAMEMAIN.CPP
/c /ZI /nologo /W3 /WX- /sdl /Od /Oy- /D WIN32 /D _DEBUG /D _CONSOLE /D _LIB /D _UNICODE /D UNICODE /Gm /EHsc /RTC1 /MDd /GS /fp:precise /Zc:wchar_t /Zc:forScope /Fo"DEBUG\\" /Fd"DEBUG\VC120.PDB" /Gd /TP /analyze- C:\USERS\BYRON\DOCUMENTS\VISUAL STUDIO 2013\PROJECTS\SPIKE 13\SPIKE10\GAMEMAIN.CPP
^C:\USERS\BYRON\DOCUMENTS\VISUAL STUDIO 2013\PROJECTS\SPIKE 13\SPIKE10\GAMEPLAYSTATE.CPP
/c /ZI /nologo /W3 /WX- /sdl /Od /Oy- /D WIN32 /D _DEBUG /D _CONSOLE /D _LIB /D _UNICODE /D UNICODE /Gm /EHsc /RTC1 /MDd /GS /fp:precise /Zc:wchar_t /Zc:forScope /Fo"DEBUG\\" /Fd"DEBUG\VC120.PDB" /Gd /TP /analyze- C:\USERS\BYRON\DOCUMENTS\VISUAL STUDIO 2013\PROJECTS\SPIKE 13\SPIKE10\GAMEPLAYSTATE.CPP
^C:\USERS\BYRON\DOCUMENTS\VISUAL STUDIO 2013\PROJECTS\SPIKE 13\SPIKE10\HIGHSCORESTATE.CPP
/c /ZI /nologo /W3 /WX- /sdl /Od /Oy- /D WIN32 /D _DEBUG /D _CONSOLE /D _LIB /D _UNICODE /D UNICODE /Gm /EHsc /RTC1 /MDd /GS /fp:precise /Zc:wchar_t /Zc:forScope /Fo"DEBUG\\" /Fd"DEBUG\VC120.PDB" /Gd /TP /analyze- C:\USERS\BYRON\DOCUMENTS\VISUAL STUDIO 2013\PROJECTS\SPIKE 13\SPIKE10\HIGHSCORESTATE.CPP
^C:\USERS\BYRON\DOCUMENTS\VISUAL STUDIO 2013\PROJECTS\SPIKE 13\SPIKE10\INFORMATIONSTATE.CPP
/c /ZI /nologo /W3 /WX- /sdl /Od /Oy- /D WIN32 /D _DEBUG /D _CONSOLE /D _LIB /D _UNICODE /D UNICODE /Gm /EHsc /RTC1 /MDd /GS /fp:precise /Zc:wchar_t /Zc:forScope /Fo"DEBUG\\" /Fd"DEBUG\VC120.PDB" /Gd /TP /analyze- C:\USERS\BYRON\DOCUMENTS\VISUAL STUDIO 2013\PROJECTS\SPIKE 13\SPIKE10\INFORMATIONSTATE.CPP
^C:\USERS\BYRON\DOCUMENTS\VISUAL STUDIO 2013\PROJECTS\SPIKE 13\SPIKE10\INVENTORYCOMPONENT.CPP
/c /ZI /nologo /W3 /WX- /sdl /Od /Oy- /D WIN32 /D _DEBUG /D _CONSOLE /D _LIB /D _UNICODE /D UNICODE /Gm /EHsc /RTC1 /MDd /GS /fp:precise /Zc:wchar_t /Zc:forScope /Fo"DEBUG\\" /Fd"DEBUG\VC120.PDB" /Gd /TP /analyze- C:\USERS\BYRON\DOCUMENTS\VISUAL STUDIO 2013\PROJECTS\SPIKE 13\SPIKE10\INVENTORYCOMPONENT.CPP
^C:\USERS\BYRON\DOCUMENTS\VISUAL STUDIO 2013\PROJECTS\SPIKE 13\SPIKE10\IOBJECT.CPP
/c /ZI /nologo /W3 /WX- /sdl /Od /Oy- /D WIN32 /D _DEBUG /D _CONSOLE /D _LIB /D _UNICODE /D UNICODE /Gm /EHsc /RTC1 /MDd /GS /fp:precise /Zc:wchar_t /Zc:forScope /Fo"DEBUG\\" /Fd"DEBUG\VC120.PDB" /Gd /TP /analyze- C:\USERS\BYRON\DOCUMENTS\VISUAL STUDIO 2013\PROJECTS\SPIKE 13\SPIKE10\IOBJECT.CPP
^C:\USERS\BYRON\DOCUMENTS\VISUAL STUDIO 2013\PROJECTS\SPIKE 13\SPIKE10\LOADER.CPP
/c /ZI /nologo /W3 /WX- /sdl /Od /Oy- /D WIN32 /D _DEBUG /D _CONSOLE /D _LIB /D _UNICODE /D UNICODE /Gm /EHsc /RTC1 /MDd /GS /fp:precise /Zc:wchar_t /Zc:forScope /Fo"DEBUG\\" /Fd"DEBUG\VC120.PDB" /Gd /TP /analyze- C:\USERS\BYRON\DOCUMENTS\VISUAL STUDIO 2013\PROJECTS\SPIKE 13\SPIKE10\LOADER.CPP
^C:\USERS\BYRON\DOCUMENTS\VISUAL STUDIO 2013\PROJECTS\SPIKE 13\SPIKE10\LOCATION.CPP
/c /ZI /nologo /W3 /WX- /sdl /Od /Oy- /D WIN32 /D _DEBUG /D _CONSOLE /D _LIB /D _UNICODE /D UNICODE /Gm /EHsc /RTC1 /MDd /GS /fp:precise /Zc:wchar_t /Zc:forScope /Fo"DEBUG\\" /Fd"DEBUG\VC120.PDB" /Gd /TP /analyze- C:\USERS\BYRON\DOCUMENTS\VISUAL STUDIO 2013\PROJECTS\SPIKE 13\SPIKE10\LOCATION.CPP
^C:\USERS\BYRON\DOCUMENTS\VISUAL STUDIO 2013\PROJECTS\SPIKE 13\SPIKE10\LOOKCOMMAND.CPP
/c /ZI /nologo /W3 /WX- /sdl /Od /Oy- /D WIN32 /D _DEBUG /D _CONSOLE /D _LIB /D _UNICODE /D UNICODE /Gm /EHsc /RTC1 /MDd /GS /fp:precise /Zc:wchar_t /Zc:forScope /Fo"DEBUG\\" /Fd"DEBUG\VC120.PDB" /Gd /TP /analyze- C:\USERS\BYRON\DOCUMENTS\VISUAL STUDIO 2013\PROJECTS\SPIKE 13\SPIKE10\LOOKCOMMAND.CPP
^C:\USERS\BYRON\DOCUMENTS\VISUAL STUDIO 2013\PROJECTS\SPIKE 13\SPIKE10\MAIN.CPP
/c /ZI /nologo /W3 /WX- /sdl /Od /Oy- /D WIN32 /D _DEBUG /D _CONSOLE /D _LIB /D _UNICODE /D UNICODE /Gm /EHsc /RTC1 /MDd /GS /fp:precise /Zc:wchar_t /Zc:forScope /Fo"DEBUG\\" /Fd"DEBUG\VC120.PDB" /Gd /TP /analyze- C:\USERS\BYRON\DOCUMENTS\VISUAL STUDIO 2013\PROJECTS\SPIKE 13\SPIKE10\MAIN.CPP
^C:\USERS\BYRON\DOCUMENTS\VISUAL STUDIO 2013\PROJECTS\SPIKE 13\SPIKE10\MAINMENUSTATE.CPP
/c /ZI /nologo /W3 /WX- /sdl /Od /Oy- /D WIN32 /D _DEBUG /D _CONSOLE /D _LIB /D _UNICODE /D UNICODE /Gm /EHsc /RTC1 /MDd /GS /fp:precise /Zc:wchar_t /Zc:forScope /Fo"DEBUG\\" /Fd"DEBUG\VC120.PDB" /Gd /TP /analyze- C:\USERS\BYRON\DOCUMENTS\VISUAL STUDIO 2013\PROJECTS\SPIKE 13\SPIKE10\MAINMENUSTATE.CPP
^C:\USERS\BYRON\DOCUMENTS\VISUAL STUDIO 2013\PROJECTS\SPIKE 13\SPIKE10\MESSAGE.CPP
/c /ZI /nologo /W3 /WX- /sdl /Od /Oy- /D WIN32 /D _DEBUG /D _CONSOLE /D _LIB /D _UNICODE /D UNICODE /Gm /EHsc /RTC1 /MDd /GS /fp:precise /Zc:wchar_t /Zc:forScope /Fo"DEBUG\\" /Fd"DEBUG\VC120.PDB" /Gd /TP /analyze- C:\USERS\BYRON\DOCUMENTS\VISUAL STUDIO 2013\PROJECTS\SPIKE 13\SPIKE10\MESSAGE.CPP
^C:\USERS\BYRON\DOCUMENTS\VISUAL STUDIO 2013\PROJECTS\SPIKE 13\SPIKE10\MESSAGESYSTEM.CPP
/c /ZI /nologo /W3 /WX- /sdl /Od /Oy- /D WIN32 /D _DEBUG /D _CONSOLE /D _LIB /D _UNICODE /D UNICODE /Gm /EHsc /RTC1 /MDd /GS /fp:precise /Zc:wchar_t /Zc:forScope /Fo"DEBUG\\" /Fd"DEBUG\VC120.PDB" /Gd /TP /analyze- C:\USERS\BYRON\DOCUMENTS\VISUAL STUDIO 2013\PROJECTS\SPIKE 13\SPIKE10\MESSAGESYSTEM.CPP
^C:\USERS\BYRON\DOCUMENTS\VISUAL STUDIO 2013\PROJECTS\SPIKE 13\SPIKE10\PLAYER.CPP
/c /ZI /nologo /W3 /WX- /sdl /Od /Oy- /D WIN32 /D _DEBUG /D _CONSOLE /D _LIB /D _UNICODE /D UNICODE /Gm /EHsc /RTC1 /MDd /GS /fp:precise /Zc:wchar_t /Zc:forScope /Fo"DEBUG\\" /Fd"DEBUG\VC120.PDB" /Gd /TP /analyze- C:\USERS\BYRON\DOCUMENTS\VISUAL STUDIO 2013\PROJECTS\SPIKE 13\SPIKE10\PLAYER.CPP
^C:\USERS\BYRON\DOCUMENTS\VISUAL STUDIO 2013\PROJECTS\SPIKE 13\SPIKE10\QUITCOMMAND.CPP
/c /ZI /nologo /W3 /WX- /sdl /Od /Oy- /D WIN32 /D _DEBUG /D _CONSOLE /D _LIB /D _UNICODE /D UNICODE /Gm /EHsc /RTC1 /MDd /GS /fp:precise /Zc:wchar_t /Zc:forScope /Fo"DEBUG\\" /Fd"DEBUG\VC120.PDB" /Gd /TP /analyze- C:\USERS\BYRON\DOCUMENTS\VISUAL STUDIO 2013\PROJECTS\SPIKE 13\SPIKE10\QUITCOMMAND.CPP
^C:\USERS\BYRON\DOCUMENTS\VISUAL STUDIO 2013\PROJECTS\SPIKE 13\SPIKE10\SELECTADVENTURESTATE.CPP
/c /ZI /nologo /W3 /WX- /sdl /Od /Oy- /D WIN32 /D _DEBUG /D _CONSOLE /D _LIB /D _UNICODE /D UNICODE /Gm /EHsc /RTC1 /MDd /GS /fp:precise /Zc:wchar_t /Zc:forScope /Fo"DEBUG\\" /Fd"DEBUG\VC120.PDB" /Gd /TP /analyze- C:\USERS\BYRON\DOCUMENTS\VISUAL STUDIO 2013\PROJECTS\SPIKE 13\SPIKE10\SELECTADVENTURESTATE.CPP
^C:\USERS\BYRON\DOCUMENTS\VISUAL STUDIO 2013\PROJECTS\SPIKE 13\SPIKE10\STARTCOMMAND.CPP
/c /ZI /nologo /W3 /WX- /sdl /Od /Oy- /D WIN32 /D _DEBUG /D _CONSOLE /D _LIB /D _UNICODE /D UNICODE /Gm /EHsc /RTC1 /MDd /GS /fp:precise /Zc:wchar_t /Zc:forScope /Fo"DEBUG\\" /Fd"DEBUG\VC120.PDB" /Gd /TP /analyze- C:\USERS\BYRON\DOCUMENTS\VISUAL STUDIO 2013\PROJECTS\SPIKE 13\SPIKE10\STARTCOMMAND.CPP
^C:\USERS\BYRON\DOCUMENTS\VISUAL STUDIO 2013\PROJECTS\SPIKE 13\SPIKE10\STATE.CPP
/c /ZI /nologo /W3 /WX- /sdl /Od /Oy- /D WIN32 /D _DEBUG /D _CONSOLE /D _LIB /D _UNICODE /D UNICODE /Gm /EHsc /RTC1 /MDd /GS /fp:precise /Zc:wchar_t /Zc:forScope /Fo"DEBUG\\" /Fd"DEBUG\VC120.PDB" /Gd /TP /analyze- C:\USERS\BYRON\DOCUMENTS\VISUAL STUDIO 2013\PROJECTS\SPIKE 13\SPIKE10\STATE.CPP
^C:\USERS\BYRON\DOCUMENTS\VISUAL STUDIO 2013\PROJECTS\SPIKE 13\SPIKE10\STATECOMMAND.CPP
/c /ZI /nologo /W3 /WX- /sdl /Od /Oy- /D WIN32 /D _DEBUG /D _CONSOLE /D _LIB /D _UNICODE /D UNICODE /Gm /EHsc /RTC1 /MDd /GS /fp:precise /Zc:wchar_t /Zc:forScope /Fo"DEBUG\\" /Fd"DEBUG\VC120.PDB" /Gd /TP /analyze- C:\USERS\BYRON\DOCUMENTS\VISUAL STUDIO 2013\PROJECTS\SPIKE 13\SPIKE10\STATECOMMAND.CPP
^C:\USERS\BYRON\DOCUMENTS\VISUAL STUDIO 2013\PROJECTS\SPIKE 13\SPIKE10\TAKECOMMAND.CPP
/c /ZI /nologo /W3 /WX- /sdl /Od /Oy- /D WIN32 /D _DEBUG /D _CONSOLE /D _LIB /D _UNICODE /D UNICODE /Gm /EHsc /RTC1 /MDd /GS /fp:precise /Zc:wchar_t /Zc:forScope /Fo"DEBUG\\" /Fd"DEBUG\VC120.PDB" /Gd /TP /analyze- C:\USERS\BYRON\DOCUMENTS\VISUAL STUDIO 2013\PROJECTS\SPIKE 13\SPIKE10\TAKECOMMAND.CPP
^C:\USERS\BYRON\DOCUMENTS\VISUAL STUDIO 2013\PROJECTS\SPIKE 13\SPIKE10\WEAPONCOMPONENT.CPP
/c /ZI /nologo /W3 /WX- /sdl /Od /Oy- /D WIN32 /D _DEBUG /D _CONSOLE /D _LIB /D _UNICODE /D UNICODE /Gm /EHsc /RTC1 /MDd /GS /fp:precise /Zc:wchar_t /Zc:forScope /Fo"DEBUG\\" /Fd"DEBUG\VC120.PDB" /Gd /TP /analyze- C:\USERS\BYRON\DOCUMENTS\VISUAL STUDIO 2013\PROJECTS\SPIKE 13\SPIKE10\WEAPONCOMPONENT.CPP
^C:\USERS\BYRON\DOCUMENTS\VISUAL STUDIO 2013\PROJECTS\SPIKE 13\SPIKE10\GOCOMMAND.CPP
/c /ZI /nologo /W3 /WX- /sdl /Od /Oy- /D WIN32 /D _DEBUG /D _CONSOLE /D _LIB /D _UNICODE /D UNICODE /Gm /EHsc /RTC1 /MDd /GS /fp:precise /Zc:wchar_t /Zc:forScope /Fo"DEBUG\\" /Fd"DEBUG\VC120.PDB" /Gd /TP /analyze- C:\USERS\BYRON\DOCUMENTS\VISUAL STUDIO 2013\PROJECTS\SPIKE 13\SPIKE10\GOCOMMAND.CPP
^C:\USERS\BYRON\DOCUMENTS\VISUAL STUDIO 2013\PROJECTS\SPIKE 13\SPIKE10\LOCKCOMPONENT.CPP
/c /ZI /nologo /W3 /WX- /sdl /Od /Oy- /D WIN32 /D _DEBUG /D _CONSOLE /D _LIB /D _UNICODE /D UNICODE /Gm /EHsc /RTC1 /MDd /GS /fp:precise /Zc:wchar_t /Zc:forScope /Fo"DEBUG\\" /Fd"DEBUG\VC120.PDB" /Gd /TP /analyze- C:\USERS\BYRON\DOCUMENTS\VISUAL STUDIO 2013\PROJECTS\SPIKE 13\SPIKE10\LOCKCOMPONENT.CPP
